tcp_id,my_count
B07173,4628
B00036,1627
A09823,9486
A02201,3867
A12675,5345
A02977,5054
A04108,541
A00120,2727
A72003,2633
A10114,13584
A14573,16229
A72063,14189
A01843,5969
A11730,1280
A03284,55084
A18430,298
A19700,63108
A05312,66515
A11218,12211
A68649,34854
A10147,32249
A17733,96980
A01718,24886
A13257,57147
A13643,414
A15108,16449
A03571,12158
A17610,28770
A01002,867
A17157,12927
A11917,12582
A23573,2310
A00792,2219
A19623,14742
A02986,2436
A16579,9638
A19272,95548
A11423,19022
A19309,564834
A10086,113156
A03620,80493
A07612,98942
A10692,7596
A08335,136778
A06990,8686
A19723,142379
A02637,261266
A18772,156819
A19392,189791
A00939,16455
A03854,13807
A03468,35568
A03619,8598
A68491,4817
A68798,10053
A15556,12136
A18739,366
A13962,9999
A02916,88406
A02665,773
A02096,30441
A19265,14649
A13043,429176
A13881,71930
A02366,47986
A04027,13228
A09585,1228
A08517,1472
A22853,16926
A14193,22271
A19788,10811
A02749,15299
A22030,8395
A03754,16022
A09736,743
B01222,762
A04901,95293
A73334,5140
A17372,23312
A17152,65636
A00685,17122
A06879,452
A10111,83134
A01707,1361
A68340,21361
A18918,14717
A20049,384888
A69098,76117
A03326,33556
A17716,34236
A22983,40104
A09824,127681
A16237,7450
A18020,4396
A18521,18532
A07756,25720
A16945,18841
A03805,30566
A00456,7945
A00268,3809
A01149,827
A08453,15343
A06985,589834
A68029,1998
A11236,7818
A03430,8611
A01362,274
A18448,11460
A07176,110885
A18004,41917
A06798,476
A09069,148967
A19751,404
A00454,6923
A14659,12007
A02273,22359
A04890,1315
A17085,10673
A09429,55330
A16167,61246
A01351,23333
A00280,7433
A01118,14284
A01313,27951
A03456,66646
A17125,13869
A18441,328440
A09530,269707
A00721,5230
A13758,288971
A17892,14203
A18731,2015
A04810,3668
A72804,319
A72941,32378
A18641,80141
A02138,7951
A15389,2871
A13812,31093
A16078,800307
A19432,10821
A14387,19296
A02616,15531
A00637,38418
A17698,1487119
A05710,16982
A08850,45125
A00689,11478
B14740,1402
A17856,536
A01618,25717
A01712,34910
A02972,2238
A20037,42503
A04458,43153
A07669,28330
A01312,11389
A08789,5565
A10675,1414263
A12273,1897
A02635,192805
A11263,1772
A08630,51786
A72185,9237
A16641,21611
A01445,22913
A13866,16074
A18760,26704
A72017,5512
A06155,25022
A72732,1430
A09163,63593
A17643,175772
A15038,19534
A22442,14509
A02621,70918
A18608,40625
A11204,17041
A11862,40999
A15980,1972
A00231,2301
A20123,807
A16796,7874
A06476,83497
A21201,12727
A13565,12492
A01627,28903
A01410,101719
A23489,856
A12123,25970
A14024,65603
A01662,104597
A08426,83143
A00639,9067
A03700,8238
A01436,13295
A14592,7340
A06381,1050
A02027,46799
A14779,42454
A19966,81821
A14107,34456
A00458,14295
A10387,5251
A03749,2578
A14030,10609
A00113,188728
A06507,20007
A00308,23141
A69006,30252
A20479,106703
A12620,1648
A08770,29746
A09659,81149
A16133,6023
A18810,66365
A18700,55107
A12672,27381
A03634,6415
A09593,27858
A15466,18238
A22668,848
A19128,58859
A14531,46054
A07082,5285
A15438,3683
A00831,102763
A01332,23816
A19752,1449
A17036,38272
A19994,2168
A72855,2643
A20120,1303
A19214,901
A68413,125145
A14882,103919
A72393,871
A68419,67976
A03408,12815
A72733,2879
A00349,17100
A08775,2273
A08492,6524
A19663,7590
A06277,309
A13085,3705
A16791,2227
A17496,2782
A20012,21667
A16642,10892
A16279,22659
A09213,18676
A14216,445444
A04966,11724
A00778,119647
A05400,25430
A23563,2159
A19229,2361
A12229,211210
A11811,15946
B15101,1245
A03627,23162
A05094,327922
A14625,19417
A68668,21308
A09620,27440
A07388,76151
A19668,61207
A68694,48726
A18586,2694
A12590,5736
A07052,11627
A00617,82633
A06859,32162
A05123,36755
A17706,305850
A07993,1428
A02793,53310
A08849,81842
A06809,20594
A08867,105563
A12973,2614
A06776,1688
A18346,17410
B12639,236
A14317,2711
A10345,355870
A07871,37350
A12343,7062
A04789,94475
A19650,68199
A01383,3892
A05156,17911
A14021,80812
A68628,3508
A04054,5237
B07675,7954
A06500,137825
A11934,32309
A03968,32934
A02288,16300
A68093,130727
A08324,479
A15347,21217
A11835,4726
A06223,1456
A01151,1555
A73945,406
B08014,1236
A18764,5818
A06227,855
A12479,3798
A05389,10641
A07876,20080
A09704,3720
A14367,27418
A06214,2240
A11551,11104
A06670,2134
A21010,9441
A01719,52052
A20476,22444
A08128,1437
A03432,224475
A19533,22340
A03769,50404
A05703,17107
A69156,95114
A01658,181239
A00336,8255
A02477,21040
A03440,9098
A08061,1219
A06525,15102
A20360,670
B15342,107566
A02951,7382
A72494,2926
A00277,10453
A04923,34449
A01509,15844
A02631,3693
A00437,29030
A17854,1885
A17462,28052
A06564,8207
A19369,24114
A16571,30069
A09223,1045
A19665,6131
A20864,8416
A14893,21323
A14943,30172
A13309,7796
A13761,8350
A68619,102029
A10113,5356
A73859,20070
A01736,45190
A19895,5940
A08344,60861
A17918,25511
A00498,18014
A17087,24069
A18747,2202
B00367,338
A73178,48159
A73478,79287
A15047,5535
A11087,29192
A02423,35444
A10909,36150
A69364,35770
A11355,14706
A06932,334474
A15706,3939
A02448,71489
B11843,33571
A01957,50907
A14709,45811
A22702,54052
A18039,2688
A14846,9640
A13064,74848
A15587,8889
A19397,8897
A08175,27803
A10541,42838
A19901,68211
A01786,22956
A10213,49027
A23454,40457
B08027,23401
A01408,87568
A00941,174562
B01271,39131
A06181,12573
A09233,2870
A20757,2401
A18435,8954
A17059,62094
B00845,27767
A72940,28616
A06825,1077
A05237,622522
A10780,13585
A13808,3709
A69357,1526
A09509,750
A07402,9188
A03508,80222
A12782,34055
A06710,13394
A12162,13971
A10968,13506
A22671,754
A16828,72851
A13664,7678
A18607,3165
A06987,17577
A01365,14143
A16267,2604
A01514,151000
A05074,205438
A00479,13869
A23539,469
A04893,5215
A02167,18254
A07592,9793
A04477,7103
A13109,33867
A04712,10026
A09828,1598
A02229,22333
A00940,51523
A72824,378
A15134,21404
A02964,4140
A16175,26763
A10781,19173
A05091,51557
A07038,16063
A04459,45117
A07032,160944
A16068,89456
A05711,27731
A11861,865
A06217,411
A15104,6196
A02424,34690
A07163,85320
A00473,909
A12487,20861
B08235,41461
A09799,21230
A10445,82815
A15388,67391
A18055,38247
A07158,24308
A05066,5728
A16395,28755
A07416,505
A04482,52286
A11440,1414
A08000,15543
A69054,99588
A02315,29734
A72013,4509
A02995,616
A21210,390
A22836,8738
A18737,72053
A11442,19127
A16922,1192
A06226,2021
A19798,29526
A07045,553
B00563,778
A08305,73486
A19863,4785
A13988,88672
A19566,36333
A08781,1069
A01173,3010
A18098,53057
A16691,58913
A13105,26067
A07883,125380
A07840,2034
A01522,16899
A00611,34562
A13086,60545
A13320,14907
A08875,236194
A03528,21134
A07663,12659
A01143,16717
A03121,158
A17692,43402
A68090,58018
A02921,67893
B08192,8683
A02045,17776
A15621,39805
A00714,39018
A02375,25503
A71316,259947
A68062,31664
A69171,69126
A18484,12017
A12376,6315
A68970,28930
A08227,27735
A04483,42395
B00014,2582
A10718,37186
A00167,5247
A02200,44183
A09959,3371
A23383,15977
A15501,975
A00257,752
A16698,47515
A00880,22815
B07937,6356
A03723,29888
A09238,726
A09226,4881
A15863,63630
A07401,31013
A10957,28968
A03479,45330
A02908,5419
A11528,10259
B01227,456
A06213,1245
A17189,6466
A16746,36855
A04997,15722
A03788,36156
A05163,1166
A19712,82823
A19376,55926
A18092,3185
A08542,128412
A04794,43200
A06583,14019
A00122,2069
A18745,1509
A04136,47604
A03448,2256776
A01373,1126
A10148,26896
A22871,17895
B01139,1586
A00281,35469
A22462,5599
A02875,2824
A16437,11145
A19398,13888
A17243,58042
A22176,3318
A15700,23895
A00406,54467
A02342,33587
A03003,6159
A03349,24067
A01727,10393
A04666,98481
A20129,694
A01628,119885
A00201,4061
A07036,13241
A03631,7966
A67922,1422056
A08664,10098
A03670,58344
A12943,245483
A08226,4442
A09661,2003
A14250,10843
B00572,346
A09598,4169
A19140,2016
A22683,6063
A08352,3101
A72347,53353
A03083,4423
B12637,423
A15701,38482
A00204,5595
A17648,35318
A05463,22079
A05186,77895
A10792,31269
A10831,12144
A13878,26789
A00481,23358
A68420,91722
A08528,11545
A19800,5596
A73348,42181
A18587,2814
A00218,2129
A19271,203439
A11927,325410
A10008,10157
A02968,15328
A20229,12201
A01198,1384
A09907,15842
A20361,24849
A72174,36250
A05048,17128
A08078,4347
A10504,10221
B01079,4402
A13141,34688
A16496,1152
A09582,788
A23575,2498
A13201,3275
A03167,579
A01199,20046
A02614,16052
A02949,10730
A07168,35542
A00008,3613
A23476,1354
A01175,69797
A02657,23329
A15048,818
A00228,3196
A12966,651
A18726,1388
A14350,1825035
A02469,18243
A20130,1203
A01697,1745
A68393,73353
A13027,688
A68172,547903
A14576,27121
B00458,30106
A18804,52562
A19658,65803
A16293,6976
A07765,14943
A09173,31361
A11026,2867
B07806,25366
A68610,37737
A03482,19083
A04954,2913
A05269,22202
A68187,85275
A72931,2253
A69200,16121
A08774,1525
A08225,23422
A06590,57566
A06986,245309
A11432,25041
A00271,9852
A04711,1001
A14460,75615
A09952,7713
A68296,19852
A10716,20090
A11295,29106
A72235,9151
A01125,2290
A02656,24188
A14707,74490
A00125,2052
A09178,3904
A73585,42665
B00482,21485
A00659,146627
A05039,2375
A00508,36321
A14064,38375
A73942,508
A14813,42324
A68068,43358
A16366,138450
A13863,30531
B14170,5458
A02663,4356
A07390,4252
A23013,49583
A03896,14981
A21085,31876
B00937,47899
A06134,269269
A97377,18803
A00402,6100
A09382,12839
A13861,12972
A68011,9472
A09832,40801
A05065,12333
A07146,114882
A69147,175569
A17690,183551
A15041,3613
A06055,1730
A19240,4510
A11949,18697
A16439,27589
A19213,1745
A68633,96989
A14825,3595
A02040,1173
A01949,35907
A07901,25283
A18437,14612
A16260,7865
A00627,90588
A09849,12327
A02963,3509
A02291,131197
A15032,14051
A08819,8909
A05036,29661
A19957,22914
A12592,59642
A15517,22489
A03777,1946
A16131,45673
A18485,7115
A20276,9865
B00226,62990
A01152,30516
A20307,17674
A19367,72679
A12165,16106
A00429,500483
A19973,2371
A16588,18329
A15130,610560
A10791,25902
A13380,818
A22667,2091
A09973,3375
A10969,85727
A01333,73336
A20392,3044
A13122,41714
A12787,19018
A18725,1086
A02778,14241
A12991,36009
A03718,75740
A02923,251335
A13636,8833
A05272,25443
A16580,44935
A01988,43576
A04988,67258
A02503,56099
A01661,3978
A19849,27965
A01155,3604
A69205,21251
B14551,600
A10578,12415
A06348,6849
A73425,315351
A06347,85096
A10175,9091
A15622,119749
A17338,13716
A68967,8035
A09533,23795
A11054,17789
A08267,6628
A03581,8760
B00654,476
A06132,1976
A72130,9424
A12339,2936
A08447,70451
A16835,447239
A13150,5226
A19141,2016
A14315,52669
A03124,605
A07722,19902
B12285,14825
A09049,18613
A11255,5213
A00712,13018
A05143,245541
A23127,20786
A08197,42670
A15046,74191
A14012,7990
A22823,16200
A02617,27195
A05388,39376
A07128,26805
A01521,7024
A20777,29277
A15045,23542
A00278,19195
A09772,17456
A05073,4853
A18728,16701
A73949,758
A02389,81001
A00457,32737
A11555,20292
A11897,1720
A14270,25471
A16209,11778
A05199,23411
A20904,5120
A00423,35820
A03756,12969
A13585,8602
A23370,21498
A16169,104887
A10563,2293
A68949,51127
A15818,29824
A00698,144040
A14944,33944
A00776,24978
A17855,1423
A08217,24184
A19169,215926
A11186,11140
A00686,27904
A16433,2906
A09291,16314
A15143,11410
A14347,65179
A17683,66341
A02023,6836
A04866,35918
B12393,20350
A17244,34183
A19361,66578
A14190,12496
A14804,997
A17219,50289
A23335,6913
A06863,479340
A02464,431136
A07105,29977
A06377,4265
A07853,17680
A16785,35390
A06800,41531
A19257,35273
A68136,26010
A69275,2155
A18639,28187
A15292,4593
A20658,3002
A04902,101054
A19649,17183
A11493,68984
A17857,218
A09927,2309
A08134,19265
A14019,51017
A17591,143255
A23061,40413
A03851,50559
A02955,5337
A02133,30345
A03361,10939
A02479,9717
A16500,701
A00332,6505
A10767,1091
A02294,158242
A01987,10811
A10138,28072
A03127,2518
A18264,52877
A10574,8647
A14462,83473
B00479,793
A67926,1487859
A16573,32023
A06436,164666
A09829,56784
A03082,29398
A09591,7562
A01363,1084
A03550,5674
A20914,3083
A09635,1229
A72493,695
A08176,568
A19349,1559
A06477,23939
A14050,22567
A01325,111646
A03467,183304
A09101,39549
A14611,22506
A08200,22696
A10041,14093
A18573,25521
A13003,3754
A19270,3645
A69201,7235
A16152,522821
B01223,843
A16255,91693
A10811,3691
A12567,41638
A05351,15743
A16112,59103
A12947,7421
A16690,39624
A15754,14229
A05372,1639
A17945,112
A19713,76111
A68446,15712
A06549,2957
A68558,2083
A11910,17074
A10848,14337
A04906,31812
A01520,29662
A00641,5076
A01136,48300
A18066,46771
A05111,19553
A08445,28730
A02948,472
A08790,4287
A73542,2819
A08196,53045
A13102,1371
A19071,24902
A04892,4702
B00063,666
A19803,51109
A17477,3030
A08471,17410
A01845,4031
A02122,48308
A73944,559
A03125,12037
A73936,1058
A02041,1376
B01224,696
A23512,131
A17112,2160
A05286,6902
A07480,3358
A06341,43646
A08639,33187
A17511,10656
A09826,67452
A00132,2074
A13920,25602
A14575,28810
A19848,41106
A16101,18711
A18080,288410
A05067,51574
A15141,3306
A73302,5683
A15106,7879
A68098,37998
A00553,1724
A16820,80634
A12969,15969
A10846,5526
A22840,1215
A18708,11639
A17143,40444
A14191,38819
A12605,5985
A20522,7916
A03912,84637
A06861,2502
A18199,10240
A01703,13382
A08353,2156
A02480,18182
A02242,10444
A14850,7664
A14713,5139
A69089,23220
A12070,859
A09592,3455
A03908,7043
A04055,7530
A17086,5991
A00702,3262
A05358,48956
A21203,1271
A00616,121210
A10967,25870
A11244,10907
A10277,1160
A04401,8787
A04105,1214
A09300,28350
A17676,129891
A68918,21330
A11841,626
A03787,23203
A21238,13414
A07166,24251
A08058,1299
A10867,13759
A01701,13481
A11245,10981
A16834,53559
A18883,79226
A22722,34687
A04437,5786
A10043,742
A02336,42739
B00461,586
A09703,897
A16126,18647
A01864,171144
A11222,2161
A07092,208134
A14176,33451
A14186,79849
A15103,29808
A15061,101660
A13877,81899
A13611,22522
A22842,1539
A06125,7465
A04793,2871
B08102,20884
A18880,14954
A09183,97784
A08991,1273
A08629,143513
A03742,69981
A02048,30043
A16643,33345
A68566,18379
A11445,309480
A06775,235
A06091,1423
A18478,4293
A05571,3705
A06832,66184
A10609,83818
A05046,17986
A12302,1927
A11622,14564
A09651,12984
A05532,12638
A05352,65020
A00943,1887
A07942,29170
A01584,46847
A07410,11576
A21205,1267
A22665,1720
A08269,45056
A06219,492
A20255,941
A06172,10098
A13763,30544
A12161,7833
B01031,2438
A09789,27325
A17158,38756
A18081,105756
A14690,15829
A14063,18256
A14588,1409
A07434,18808
A01568,1951
B07409,116
A17257,92
A01943,24883
A02136,14343
A01767,7902
A01461,27286
A08214,2649
A00179,4940
A09766,19330
A68350,11728
A17339,5171
A14823,16060
A14213,12661
A10850,24734
A02897,110734
A09134,16622
A03861,58666
A18234,40839
A03453,1347
A04501,24402
A00290,2915
A06706,952
A07911,46655
A04894,9911
A08171,8986
A10170,51162
A00614,21018
A09636,2689
A72378,8676
A11683,5417
B07588,14889
A09702,819
A05093,31287
A07056,5260
B11202,13153
A69343,18934
A04474,475631
A04811,40077
A17642,364206
A11953,12389
A19673,6967
A03173,11733
A16240,86245
A13312,19729
A01197,1422
A20862,36543
A00921,5332
A02731,22177
A22992,31789
A00276,35330
A00283,27113
A14369,30467
A68512,22006
A07905,23096
A06617,139714
B00481,6453
A04964,3294
A08665,6709
A19934,2527
A11356,9497
B00562,9295
A15028,31134
A13377,18543
A02498,43609
A09567,484090
A08360,15811
A72088,1215
A01680,4818
A10777,33083
A20020,45531
A14281,17473
B00849,10800
B06834,0
A04806,2641
A16838,457617
A16196,22953
A17156,237600
A19122,8691
A68376,16419
B14599,5583
A05679,34391
A03909,28350
A08491,26446
A02043,102412
A04918,14324
B12636,844
A19561,2660
A17748,383
A08218,108736
A15343,121170
A17662,651326
A21166,29550
A15034,60872
A07087,22018
A00634,9999
A03573,4114
A20382,2818
A04206,18125
B01022,5537
A16597,18601
A13680,78490
A22723,20479
A14464,32894
A15341,27150
A16120,19527
A08438,14721
B01226,501
B00775,667
A08072,911
A05390,10561
A09662,61292
A06772,29976
A19317,2739
A10530,126680
A19267,72239
A14368,50016
A02074,18492
A22778,15799
A19864,15577
A07881,99850
A16809,96266
A68556,13811
A17489,18793
A08357,11612
A14978,1804
A02672,12985
A01372,11215
A01286,16115
A09211,4344
A14461,232523
A18749,5173
A03337,8860
A14257,126499
A13030,99115
B08023,50590
A02331,32
A11914,17209
A68658,15500
A01219,27613
A18350,239
A02421,1446
A09583,7455
A09658,112868
A02111,44475
A01724,20168
A68214,43944
A01518,97561
A19216,12536
A19988,54412
A68554,15106
A01847,8075
A17146,19610
A12679,9382
A14059,251991
A17191,45776
A14255,25732
A01258,37611
A08369,3350
A17535,13091
A10446,75019
A14785,53195
A01695,4878
A13026,700
A15443,18187
A20391,26057
A03850,64979
A20370,35655
A20909,12690
A20352,383
A13753,8510
A01299,51443
A02957,795
A02347,86808
A01831,59832
A13955,43458
A06667,51215
A08355,5661
A09094,29728
B00396,14045
A17694,40193
B00950,712
A03094,77599
A05397,11706
A03097,90099
A17183,706661
A06298,291
A19808,1030
A11902,82373
A00750,19090
A09584,1404
A06210,2113
A06764,101979
A01909,20020
A10414,16623
A16364,3679
A15704,20515
A18769,29846
A09862,83
A68094,2158
A10693,14657
A06783,19269
B15269,15635
A03089,22153
A09876,26186
A02008,20603
A17192,18969
A02171,9657
A15760,2714
B15672,224334
A11529,8713
A19279,12684
A04472,100462
B00474,445
A02080,26957
A12708,11266
B08021,41681
A10681,1547
A72222,160613
B16427,4545
A11375,11736
A04960,3612
B11837,303228
A20450,20745
A02966,13803
A06224,2452
A20194,8055
A16590,16539
A17215,20402
A12777,147799
A08239,79046
A09618,60099
A11439,1039
A12691,4736
A19563,310439
A17947,57973
A22071,10916
A69062,13221
A69358,5481
A14538,50605
A18175,796
A12159,20354
A21151,423
A10806,3358
A15880,28148
A68197,575557
A14624,63380
A01792,12110
A09553,27173
A03431,12905
B00614,50924
B00290,142082
A01942,1386
A13620,100368
A06380,1686
A02630,112876
A07474,1255
A10581,190295
A16158,550
A00191,2393
A68033,2205
A03363,29287
A20144,2504
A19306,60773
A18616,1627
A18479,5008
A12587,925
A72141,25118
A14187,19327
A07453,8518
A04511,10845
A09129,8394
A20738,302744
A14696,2563
A12303,1908
A69102,3947
A01236,13064
B00077,428
A19072,118208
A23577,955
A16191,54929
A04764,2166
A01592,1913
A03040,23457
A01354,21058
A03893,27880
A03069,165424
A12581,64115
A05045,13494
A03166,641
A09315,2789
A00610,4143
A20661,88985
A10192,10083
A19362,22846
A12619,3711
A14577,14421
A04527,62018
A69328,2898
A19422,52604
A02293,15494
A03434,26818
A10288,682
A04086,1038
A19076,39197
A19056,30192
A09292,10884
A10744,4917
A15131,7401
A15969,3048
A14104,6793
A05313,81638
A15703,22000
A19847,17515
A09946,8260
A05297,31636
A08361,16134
A18158,3260
A14831,4269
A04808,6932
A06524,22310
A08848,25301
A11614,9274
B00031,831
A69118,2621
A20501,13996
A01507,31945
A11430,5808
A05694,33665
A03184,74701
A05456,25384
A00440,478219
A02296,482257
A68555,39658
A07040,7917
A01731,7566
A04103,763
A21207,1640
A69425,4676
A18003,62009
A02306,1520
A10911,9458
A68846,15740
A15033,77170
A09827,28240
A16208,29205
A03171,9432
A10295,25541
A19465,283651
A09590,303
A00102,7472
A08548,259035
A17646,64656
A08546,187985
A06693,480
A03165,573
A03645,19550
A14715,15959
A01300,10302
A10245,4549
A15442,39306
A07909,36695
A07302,1406
A12575,797
A07899,14137
B01083,15052
A18439,54182
A68231,11107
A04369,9690
A74011,10527
A06869,28230
A18712,17903
A02993,2604
A15040,6197
A00275,10467
A09380,16360
A17123,1814
A17722,101027
A14710,603939
A11681,561
A20393,9318
A18644,2293
B01128,592
A02110,20077
A13348,25952
A00662,62498
A06319,3278
A08840,277863
A18097,29964
A13922,3574
A16113,26819
A13407,8615
A17221,31625
A68179,50528
A16278,14699
A03435,32540
A18998,65165
A00718,20677
A09299,28554
A09539,82475
A20591,1081
A11086,32858
A02599,84738
A04920,177843
A09062,121116
A01753,12674
A11748,16461
A04484,47727
A09802,1009616
A06521,212959
A14055,38225
A03755,23658
A23550,685
A05393,1162
A07769,309619
A20435,14916
A16518,83773
A11083,14168
A07033,13057
A11443,102021
A68163,15031
A04905,19754
A16510,50148
A08922,3128
A21200,769
A15297,39567
A16163,32871
A20912,3973
A15724,22021
A19935,11707
A16696,32297
A12984,25219
A17486,14605
A20214,579
A02984,8592
A05651,79316
A12533,39170
A22422,19610
A01684,17333
A18844,7840
A11574,2491
A68305,707
A18162,3354
B07535,11612
A08224,23745
A19291,21341
A09916,44831
A06607,92652
A06898,48395
A00522,8784
A01457,814
A72509,116916
A18727,320
A09918,88819
A18730,627
A08362,27701
A04052,7993
A17725,28574
A11090,19406
A07719,9755
A14053,16560
A19606,19944
A09586,4770
A10270,2104
A00931,21799
A12399,5289
A13106,4000
A14485,40846
A06147,11784
A00755,40822
A09922,32193
A09001,6444
A11933,123960
A14033,89153
A04930,18863
A19052,20541
A01797,14463
A68663,14537
B00052,17028
A05392,1173
A01335,222347
A15295,135213
A09014,2332
A04936,250179
A14029,32534
A08486,34077
A01678,9788
A68221,19822
A18995,44746
A22165,6347
A14103,55944
A08614,18440
A08444,47648
A00412,123051
A00159,6451
A12110,71440
A19207,27044
A01262,78954
A07873,32803
A18016,24816
B08000,5295
A01130,83625
A01880,46425
A07233,7282
A03939,662
B00777,770
A17521,99902
A14627,15175
A13780,11728
B08108,3213
A15140,44706
A17649,61475
A15043,3283
A11417,27655
A68314,4844
A22686,57152
A19989,45166
A73873,10405
A17597,13441
A12940,391254
B00463,26095
A10388,585
A12622,83594
B00136,20407
A04491,20378
A16256,33403
A18670,1860
A13666,25862
A00249,20622
A14406,90173
A23000,55113
A00273,13752
A68945,14849
A73587,2807
A00382,9716
A13880,76896
A04107,643
A16411,1437
A00282,85752
A16257,32181
A02203,13802
A01297,14127
A06151,73006
A01567,6211
A72335,3048
A08569,91136
A10110,5624
A09151,32420
A18723,1214
A03747,665
A18320,12991
A00168,4911
B07983,11862
A02885,13155
A04606,48398
A06266,8344
A10342,6963
B00985,662
A16466,97397
A15145,71278
A14164,10094
A13966,21230
A02779,45435
B08033,5163
A05567,2663
A16443,4862
A09616,13489
A20865,12451
A14189,19002
A19234,41200
A21064,29935
A02216,5098
A07026,152958
A15441,3115
A14463,105276
A20458,70701
A15036,10830
A21161,26450
A09920,37511
A11438,9750
B01130,136
A16121,6832
A15042,3277
A17590,14618
A02879,5738
A19525,4065
A19120,326
A08283,42195
A06716,105649
A07184,29348
A10555,2961
A13870,5478
A17025,4016
A06625,14253
A04955,5503
A17190,11238
A06390,10746
A00284,19340
A08059,994
A12301,6855
A19320,4965
A10413,9986
A01231,97673
A08838,180772
A00799,8638
A17727,38225
A02872,160879
A68859,101339
A19277,17373
A14807,753
A13744,33556
A17236,49975
A17162,35864
A02973,1204
A15817,34462
A16987,4012
A09915,12470
A07100,90409
A09123,17731
A19571,62990
A02895,138543
A06079,1829
A07119,12227
A12589,15251
A06218,3055
A09739,11827
A01387,1905
A04790,55785
A68108,976368
A20270,10900
A07417,659
A01505,685
A17167,63784
A18040,6884
A02953,1431
A02806,44956
A16921,57430
A05076,246165
A02928,58001
A15874,52653
B01231,75
B00941,31885
A08649,170134
A01730,51107
A10176,9105
B07107,4450
A05325,25047
A10244,7869
A02961,8757
A13768,1265
A68254,16196
A72181,17865
A09142,11593
A14100,17219
A08264,695
A19802,22775
A09913,39655
A09316,63330
A08673,24179
A04979,4089
A13778,13910
A05017,113166
A02476,7069
A14363,39912
A03549,169001
A18078,166422
A11921,2585
A16220,12398
A09431,16052
A12924,61549
A04931,18415
A16832,734289
A14436,29018
A04463,90511
A09649,19132
A12827,42032
A68845,54271
A01196,19986
A12923,37325
A13297,15676
A07435,13307
A07462,13265
A01506,15257
A09407,6811
A01624,79933
A14708,61404
A16241,51801
A01681,1748
A12126,2411
A20121,1081
A07044,27354
A06516,19235
A15979,3162
A10724,11029
A20496,1838
A72184,102
A19026,79420
A07047,615
A10442,68052
A16913,182719
A08816,6106
A04053,4396
A14172,20045
A19742,37398
A03862,26709
A17450,1034
A03130,694
A68148,4208
A01080,48759
A02655,19734
A03632,10304
A19218,3272
A15765,24118
A17636,27681
B07761,10583
A08178,8103
A04372,9440
A10441,46685
A05271,5359
A06492,279698
A00932,1156
A73530,59
A73566,4210
A07896,9606
A68527,10404
A10614,73389
A02967,1449
A06660,51168
A12121,40445
A09641,75338
A73937,682
A20579,333376
A68653,70320
A07415,87024
A18569,1649
A14579,49560
A17239,51785
A06817,46063
A03907,6602
A08918,42511
A09765,20063
A68946,11496
A11930,77586
A04928,20870
A68146,60976
A09239,608
A01951,20315
A07463,129085
A18433,10882
A06770,1639
B00537,36517
A14009,9019
A00748,17668
A05738,81945
A02153,18429
A07481,2290
A01947,685
A22431,3164
A12490,57973
A07405,30503
A18665,780
A68157,22943
A00229,2593
A05360,30834
B00330,11438
A09137,10406
A17729,20462
A03679,1646
A03378,42441
A06870,111899
A11844,10378
A02218,971
A18993,143671
A09212,816
A02443,582
A17724,144780
A18744,12890
A15127,87279
A21152,309
A20850,80732
A00267,13658
A03635,4269
A06504,74292
A01953,14681
A18366,12157
A14822,27833
A13311,5860
A07676,8069
A16509,39098
A00472,57527
A16824,428
A08964,43973
A14254,29437
A19998,37573
A17705,336551
A68519,1828
A19670,161020
A00274,39173
A68397,36594
A15044,3264
A06743,58141
A08280,37471
A68976,5092
A18174,20094
A22897,7546
A06514,23860
A11613,5877
A09587,967
A16049,526402
A68449,385820
A03439,8087
A01765,8209
A13977,135118
A13392,25616
A16577,13850
A08620,67342
A09063,252797
A13004,5545
A17967,149389
A16964,49989
A06346,86358
A14711,46997
A68078,301859
A18732,421
A12547,15481
A08566,73099
A13809,19369
A12919,19634
A09931,705
A05374,22778
A73036,1940
A09220,11600
B00400,19070
A00808,26480
A16462,5638
B00830,9833
A74040,5752
A01764,32390
A03260,17827
B11289,544
A04351,10382
A68831,747414
A16100,7996
A00482,1790
A01910,18094
A20906,402
A01115,286765
A16393,651
A09499,1985
A07781,81608
A00518,926
A69169,20200
A16206,21170
A17684,45818
A06819,816
B12208,60087
A10649,156693
A09182,82369
A01468,3532
A22670,333
A13762,19469
A10299,2051
A17693,9222
A18640,239906
A08135,1383
A18761,6737
A16281,66495
A21209,1339
A09086,103534
A10910,45944
A08049,1705
A00455,5162
A01154,5317
A15978,42617
A08599,17577
A13319,1035
A68509,16060
A09000,14603
A09926,2337
A00301,15615
A12988,37296
A02157,37225
A08332,15185
A08830,26323
A01304,44456
A02408,10534
A19965,41625
B07179,52708
A21159,19345
A15761,11176
A20531,45976
A02671,10474
A68302,22299
A11016,52099
A15334,44978
A09100,80381
A05572,3707
A21206,791
A17331,16533
A01594,31467
A09734,6464
A18742,20889
A04608,28814
A02952,1595
A00762,16901
A18482,3311
A11441,1907
A19770,10602
A00630,37502
A00176,2431
A68436,77468
A07590,7372
A16845,78175
A09639,4854
A22910,15916
A00489,403
A07696,108685
B07957,1764
A18805,17664
A17869,5345
B00728,771
A04423,765
A14397,1152
A19296,16351
A18509,60912
A13115,21260
A68023,27793
A08919,1658
A10443,5212
B00062,561
A02494,40166
A72894,19484
A68487,11791
A07051,1395
A02065,750
A11947,8556
A02956,6954
A20304,146446
A15039,20329
A01774,8441
A10444,91211
A11240,10317
A20262,10356
A00158,6451
A09179,3612
A05353,62488
A08336,104423
A21162,27334
A01555,19266
A00703,15593
A20313,23229
A04975,16070
A09947,10479
A01666,35375
A20492,16739
A05354,45531
A23017,84212
A15970,108973
A02613,132045
A22192,23850
A15530,95228
A14060,28124
A09595,14458
A69037,40310
A23561,28064
A23123,7751
A17393,294
A01324,289006
A04917,23585
A10708,1187263
A69014,789
A06678,21148
A19619,7498
A09537,9893
A02298,4846
A16159,571
A06480,17469
A09466,65480
A18480,6884
A02143,17160
A16498,1154
B00958,36926
A00044,1353
A11462,172524
B12633,1243
A05158,10304
A06778,771
A21185,4871
A05185,59278
A01878,508
A14480,124041
A00033,2632
B01020,1133
A20032,325147
A10793,29858
A00253,2174
A17638,89009
B12640,1282
A14810,1041
A16263,16479
A17946,123664
A15132,9415
A13665,96199
A10352,149693
A10803,38436
A00186,4528
A09298,18184
A06860,48461
A04036,31103
A19145,11194
A01331,12993
A00142,93058
A13341,49519
A19666,11646
A03961,1202
A07436,13243
A08610,335776
A14868,25695
A10028,2364
A16942,243
A00990,101503
B00888,39355
A18766,7689
A01466,74532
A21204,421
A11924,19254
A15109,12612
A07892,11676
A03691,85456
A19891,4393
B00982,61918
A12329,452
A19440,48570
A19146,7654
A19523,4696
A72490,19078
A10679,7838
A00397,4909
A00364,11050
A74038,29835
A06162,26552
A19667,4989
A68943,7822
A09706,17830
A68020,3977
A69334,700
A06628,1678
A03804,21451
A19753,2698
A68901,2491
A68662,38030
A09928,1692
A99901,40850
A04468,536824
A68407,4745
A21119,179191
A17647,36382
A11912,16595
A68202,2062824
A00154,2894
A18319,1797
A09165,163442
A17891,4005
A16774,15676
A02426,59733
A16501,663
A15541,83107
A68991,14132
A20303,117961
A10583,17148
A07674,61705
A16477,52058
A22993,31771
A18729,18555
A15440,9047
A19669,7572
A00935,41522
A04532,7098
A16402,1829
A08908,3302
A12291,56510
A09852,36578
A02376,4830
A68194,35495
A05126,3548
A01570,39009
A03906,8252
A07116,153299
A16229,134012
A16139,16257
A06481,119261
A09279,1368
A20800,83538
A14275,7050
A19412,11105
A16369,3195
A07041,9016
A19032,109928
A68595,73140
A21202,725
A72470,24695
A01761,13633
A01754,42351
A16825,6109
A02919,139046
A13563,5690
A09628,9275
A16268,4409
A23344,14213
A20354,753
A17870,8328
A18750,3956
A06137,61828
A67927,832681
A13837,79412
A07050,1400
A17966,1282
A16815,21347
A00279,10457
A01629,37324
A01224,27082
A04146,1631
A14818,12047
A12694,1428
A21163,29135
A17654,39654
A01517,7131
A08243,519
A03768,47987
A14595,7879
A10112,46480
A22801,10608
A68089,47266
A02795,4141
A06135,5969
B00843,1264
A14366,28010
A07157,2567
A15542,53701
A19239,36018
A06734,5562
A11911,22911
A01749,13261
A08899,9015
A68498,6033
A01740,43319
A13381,142270
A07046,2732
A05202,49887
A13654,4985
A17556,17188
A14352,91795
A19743,18771
A17928,4195
A01145,10582
A06136,1250
A04873,73476
A03364,104917
A00642,16840
A01631,17645
A01848,8661
A68840,446408
A68013,653
A02970,4529
A74017,7215
A07396,146177
A09181,62920
A06379,6581
A74019,14515
A20794,32149
A18734,53217
A05394,17381
A07659,2509
A11219,7396
A03731,7041
A15339,72384
A05218,22723
A02971,6748
A68046,1037
A02884,11385
A18135,141906
A16576,19525
A08567,24550
A00609,7177
A18693,17797
A11913,14031
A00742,15660
A12972,3381
A07049,9655
A04809,7119
A08472,15442
A06899,21185
A11429,12119
A08483,63957
A02783,9220
A73088,467
A14354,46704
A06221,248
A14946,42124
A09235,586
A03079,37374
A11333,101353
A02983,617
A18707,26376
A18982,9086
A07891,5406
A05182,63336
A05334,14520
A09998,175210
A06215,976
A14574,9086
A03680,38873
A00394,1044
A10233,54723
A06748,597
A02807,8986
A18057,30023
A69179,31660
A03100,24578
A17133,1471
A01353,12974
A15340,12615
A08452,46482
A01309,259057
A14184,31347
A73271,75609
B00039,2403
A15107,12161
A00254,4068
A19266,2141
A00126,2017
A00446,43256
A02401,6011
A69056,1096439
A13091,51668
A07400,6722
A02817,44343
A03110,968
A00019,2485
A04926,24160
A00933,11309
A19567,6442
A17717,114379
A16459,37957
A03926,12538
A16262,5923
A20660,150433
A09502,69040
A00222,3122
A17900,8526
A15337,16462
A12939,140079
A17539,16063
A12958,340
A12535,43486
A09793,12582
A13678,76757
A18767,4672
A19796,557
A14467,11912
A10964,31585
A14016,118689
A18079,25333
A07004,36749
A01327,13362
A68828,11064
A16508,32469
A07039,19530
A00060,39491
A02329,809434
A19717,10703
A09115,2822
A06484,84619
B00420,25505
A18157,1909
A09568,57780
A09665,3976
A14353,786005
A15531,17318
A02129,30099
A11915,16266
A73575,14646
A18746,5813
A68438,41005
A68306,17126
A68950,502
A03174,6034
A06502,115859
A08425,87529
A17037,15594
A14394,22045
A02926,27123
A20383,19242
A68079,47080
A06340,124509
A06652,24835
A20438,69401
A02881,8194
A07054,4670
A00924,4554
A17534,40861
A07941,10762
A11166,6700
A07706,49177
A14157,13378
A20143,79001
A10647,42278
A06140,140735
A01336,38383
A17641,93351
A10597,4837
A00193,3453
A11025,10966
A16784,51206
A06733,22220
A17651,7784
A05049,133734
A10586,68836
A06078,32036
A05037,20653
A08832,26279
